{"data":[{"id":"49110","name":"\u5f85\u5220\u9664\u697c\u680b1"},{"id":"52633","name":"\u5b89\u6167\u4e1c\u91cc1\u53f7\u9662"},{"id":"51906","name":"\u91d1\u5e841\u53f7\u9662"},{"id":"49433","name":"CBD\u603b\u90e8\u516c\u5bd31"},{"id":"53168","name":"\u6c38\u5b9a\u8def1\u53f7\u9662"},{"id":"50956","name":"\u661f\u6cb3\u82d11\u53f7\u9662"},{"id":"48969","name":"\u91d1\u5174\u8def1\u53f7\u9662"},{"id":"49846","name":"\u60e0\u65b0\u5317\u91cc1\u53f7\u9662"},{"id":"49661","name":"\u4e1c\u6052\u65f6\u4ee31\u671f"},{"id":"53897","name":"\u5b9a\u798f\u5e84\u897f\u91cc1\u53f7\u9662"}],"count":18,"recordCount":50,"totalPage":2,"currentPage":"1","result":1,"status":1}